…
# clean opioid treatment data #
# data is only for the year 2017#

opioid_treatment_distance %>% 
  filter(state == 'New York') %>%
  select(state, county, value) %>%
  rename(distance = value) 
```

    ## # A tibble: 62 x 3
    ##    state    county             distance
    ##    <chr>    <chr>                 <dbl>
    ##  1 New York Albany County          5.97
    ##  2 New York Allegany County       14.6 
    ##  3 New York Bronx County           0.32
    ##  4 New York Broome County          7.96
    ##  5 New York Cattaraugus County     9.86
    ##  6 New York Cayuga County         11.9 
    ##  7 New York Chautauqua County      8.15
    ##  8 New York Chemung County         6.53
    ##  9 New York Chenango County       11.6 
    ## 10 New York Clinton County        14.4 
    ## # ... with 52 more rows
…
  print(bar)
```

``` r
# animated graph that shows how many pills were perscribed in each county as time passes#
# NY state instituted restrictions on opioids perscribed #

print(prod_county)
```

    ## # A tibble: 434 x 3
    ##    county    year numpills
    ##    <chr>    <int>    <int>
    ##  1 ALBANY    2006    15696
    ##  2 ALBANY    2007    18424
    ##  3 ALBANY    2008    20264
    ##  4 ALBANY    2009    20641
    ##  5 ALBANY    2010    21543
    ##  6 ALBANY    2011    21103
    ##  7 ALBANY    2012    21094
    ##  8 ALLEGANY  2006     3747
    ##  9 ALLEGANY  2007     3986
    ## 10 ALLEGANY  2008     3930
    ## # ... with 424 more rows
…
